ID#,ATTRIBUTE_NAME,RAW_VALUE
01,Raw Read Error Rate,0
09,Power On Hours,153
0C,Power Cycle Count,2263
0E,Device Capacity,2000409264
0F,User Capacity,1875385008
10,Initial Spare Blocks Available,8282
11,Spare Blocks Remaining,8282
64,Total Erase Count,6669037
A8,SATA PHY Error Count,0
AA,Bad Block Count,265
AD,Erase Count,6946983
AE,Unexpected Power Loss Count,2237
AF,Power Failure Protection Status,146604032
C0,Unexpected Power Loss Count,2237
CA,Percentage of Spares Remaining,4
DA,CRC Error,0
E7,SSD Life Remaining,96
EA,Total NAND Read,176450972736
EB,Total NAND Written,195799471200
F1,Total Host Write,174081239773
F2,Total Host Read,170957342849
