ID#,ATTRIBUTE_NAME,RAW_VALUE
01,Raw Read Error Rate,0.0
09,Power On Hours,14899.0
0C,Power Cycle Count,329.0
0E,Device Capacity,1073741824.0
0F,User Capacity,1000215216.0
10,Initial Spare Blocks Available,61.0
11,Spare Blocks Remaining,61.0
64,Total Erase Count,191358144.0
A8,SATA PHY Error Count,0.0
AA,Bad Block Count,479.0
AD,Erase Count,96142851.0
AE,Unexpected Power Loss Count,297.0
AF Power Failure Protection Status,19464448,
C0,Unexpected Power Loss Count,297.0
CA,Percentage of Spares Remaining,48.0
DA,CRC Error,0.0
E7,SSD Life Remaining,52.0
EA,Total NAND Read,25661269024.0
EB,Total NAND Written 1252733108832,
F1,Total Host Write,9460.0
F2,Total Host Read,11596119463.0
